[{
  "id": "MTiwCjxJt4I",
  "score": "drink",
  "times": {
    "time": [
        {"start": "2.5", "stop": "4.5"},
        {"start": "16.5", "stop": "18.5"},
        {"start": "25", "stop": "27"},
        {"start": "42", "stop": "44"},
        {"start": "62.5", "stop": "64.5"},
        {"start": "68", "stop": "70"},
        {"start": "89.5", "stop": "91.5"},
        {"start": "97", "stop": "99"},
        {"start": "106.5", "stop": "108.5"},
        {"start": "112", "stop": "114"},
        {"start": "120.5", "stop": "122.5"},
        {"start": "162.5", "stop": "164.5"},
        {"start": "177", "stop": "179"},
        {"start": "190.5", "stop": "192.5"},
        {"start": "235", "stop": "237"}
    ]
  }
}]